# NAME 		: alt_ttbar_Sherpa_221_singleLepton
# DATA 		: 0
# AF2 		: 0
# PRIORITY 	: 0

mc16_13TeV.410250.Sherpa_221_NNPDF30NNLO_ttbar_SingleLeptonP_MEPS_NLO.deriv.DAOD_SUSY16.e5450_s3126_r9364_p3652
mc16_13TeV.410251.Sherpa_221_NNPDF30NNLO_ttbar_SingleLeptonM_MEPS_NLO.deriv.DAOD_SUSY16.e5450_s3126_r9364_p3652
