# NAME 		: topOther
# DATA 		: 0
# AF2 		: 0
# PRIORITY 	: 0

mc16_13TeV.410560.MadGraphPythia8EvtGen_A14_tZ_4fl_tchan_noAllHad.deriv.DAOD_SUSY16.e5803_s3126_r9364_p3652
mc16_13TeV.410155.aMcAtNloPythia8EvtGen_MEN30NLO_A14N23LO_ttW.deriv.DAOD_SUSY16.e5070_s3126_r9364_p3652
mc16_13TeV.410156.aMcAtNloPythia8EvtGen_MEN30NLO_A14N23LO_ttZnunu.deriv.DAOD_SUSY16.e5070_s3126_r9364_p3652
mc16_13TeV.410157.aMcAtNloPythia8EvtGen_MEN30NLO_A14N23LO_ttZqq.deriv.DAOD_SUSY16.e5070_s3126_r9364_p3652
mc16_13TeV.410218.aMcAtNloPythia8EvtGen_MEN30NLO_A14N23LO_ttee.deriv.DAOD_SUSY16.e5070_s3126_r9364_p3652
mc16_13TeV.410219.aMcAtNloPythia8EvtGen_MEN30NLO_A14N23LO_ttmumu.deriv.DAOD_SUSY16.e5070_s3126_r9364_p3652
mc16_13TeV.410220.aMcAtNloPythia8EvtGen_MEN30NLO_A14N23LO_tttautau.deriv.DAOD_SUSY16.e5070_s3126_r9364_p3652
mc16_13TeV.410276.aMcAtNloPythia8EvtGen_MEN30NLO_A14N23LO_ttee_mll_1_5.deriv.DAOD_SUSY16.e6087_s3126_r9364_p3652
mc16_13TeV.410278.aMcAtNloPythia8EvtGen_MEN30NLO_A14N23LO_tttautau_mll_1_5.deriv.DAOD_SUSY16.e6087_s3126_r9364_p3652
mc16_13TeV.410277.aMcAtNloPythia8EvtGen_MEN30NLO_A14N23LO_ttmumu_mll_1_5.deriv.DAOD_SUSY16.e6087_s3126_r9364_p3652
mc16_13TeV.410397.MadGraphPythia8EvtGen_ttbar_wbee_MEN30LO_A14N23LO.deriv.DAOD_SUSY16.e6086_s3126_r9364_p3652
mc16_13TeV.410398.MadGraphPythia8EvtGen_ttbar_wbmumu_MEN30LO_A14N23LO.deriv.DAOD_SUSY16.e6086_s3126_r9364_p3652
mc16_13TeV.410399.MadGraphPythia8EvtGen_ttbar_wbtautau_MEN30LO_A14N23LO.deriv.DAOD_SUSY16.e6086_s3126_r9364_p3652
mc16_13TeV.304014.MadGraphPythia8EvtGen_A14NNPDF23_3top_SM.deriv.DAOD_SUSY16.e4324_s3126_r9364_p3652
mc16_13TeV.410080.MadGraphPythia8EvtGen_A14NNPDF23_4topSM.deriv.DAOD_SUSY16.e4111_s3126_r9364_p3652
mc16_13TeV.410081.MadGraphPythia8EvtGen_A14NNPDF23_ttbarWW.deriv.DAOD_SUSY16.e4111_s3126_r9364_p3652
mc16_13TeV.407321.MadGraphPythia8EvtGen_A14NNPDF23LO_ttbarWll.deriv.DAOD_SUSY16.e5536_s3126_r9364_p3652
