
# NAME 		: MGPy8EG_A14N23LO_SM_N2C1m_%5_%6_2L2MET75_MadSpin
# DATA 		: 0
# AF2 		: 1
# PRIORITY 	: 0

mc16_13TeV.395046.MGPy8EG_A14N23LO_SM_N2C1m_100_60_2L2MET75_MadSpin.deriv.DAOD_SUSY16.e6587_e5984_a875_r9364_r9315_p3565
mc16_13TeV.395048.MGPy8EG_A14N23LO_SM_N2C1m_82_80_2L2MET75_MadSpin.deriv.DAOD_SUSY16.e6708_e5984_a875_r9364_r9315_p3565
mc16_13TeV.395049.MGPy8EG_A14N23LO_SM_N2C1m_83_80_2L2MET75_MadSpin.deriv.DAOD_SUSY16.e6708_e5984_a875_r9364_r9315_p3565
mc16_13TeV.395050.MGPy8EG_A14N23LO_SM_N2C1m_85_80_2L2MET75_MadSpin.deriv.DAOD_SUSY16.e6587_e5984_a875_r9364_r9315_p3565
mc16_13TeV.395051.MGPy8EG_A14N23LO_SM_N2C1m_90_80_2L2MET75_MadSpin.deriv.DAOD_SUSY16.e6708_e5984_a875_r9364_r9315_p3565
mc16_13TeV.395052.MGPy8EG_A14N23LO_SM_N2C1m_95_80_2L2MET75_MadSpin.deriv.DAOD_SUSY16.e6587_e5984_a875_r9364_r9315_p3565
mc16_13TeV.395053.MGPy8EG_A14N23LO_SM_N2C1m_100_80_2L2MET75_MadSpin.deriv.DAOD_SUSY16.e6587_e5984_a875_r9364_r9315_p3565
mc16_13TeV.395054.MGPy8EG_A14N23LO_SM_N2C1m_110_80_2L2MET75_MadSpin.deriv.DAOD_SUSY16.e6587_e5984_a875_r9364_r9315_p3565
mc16_13TeV.395055.MGPy8EG_A14N23LO_SM_N2C1m_120_80_2L2MET75_MadSpin.deriv.DAOD_SUSY16.e6587_e5984_a875_r9364_r9315_p3565
mc16_13TeV.395057.MGPy8EG_A14N23LO_SM_N2C1m_102_100_2L2MET75_MadSpin.deriv.DAOD_SUSY16.e6708_e5984_a875_r9364_r9315_p3565
mc16_13TeV.395058.MGPy8EG_A14N23LO_SM_N2C1m_103_100_2L2MET75_MadSpin.deriv.DAOD_SUSY16.e6587_e5984_a875_r9364_r9315_p3565
mc16_13TeV.395059.MGPy8EG_A14N23LO_SM_N2C1m_105_100_2L2MET75_MadSpin.deriv.DAOD_SUSY16.e6587_e5984_a875_r9364_r9315_p3565
mc16_13TeV.395060.MGPy8EG_A14N23LO_SM_N2C1m_110_100_2L2MET75_MadSpin.deriv.DAOD_SUSY16.e6587_e5984_a875_r9364_r9315_p3565
mc16_13TeV.395061.MGPy8EG_A14N23LO_SM_N2C1m_115_100_2L2MET75_MadSpin.deriv.DAOD_SUSY16.e6708_e5984_a875_r9364_r9315_p3565
mc16_13TeV.395062.MGPy8EG_A14N23LO_SM_N2C1m_120_100_2L2MET75_MadSpin.deriv.DAOD_SUSY16.e6587_e5984_a875_r9364_r9315_p3565
mc16_13TeV.395063.MGPy8EG_A14N23LO_SM_N2C1m_130_100_2L2MET75_MadSpin.deriv.DAOD_SUSY16.e6708_e5984_a875_r9364_r9315_p3565
mc16_13TeV.395064.MGPy8EG_A14N23LO_SM_N2C1m_140_100_2L2MET75_MadSpin.deriv.DAOD_SUSY16.e6587_e5984_a875_r9364_r9315_p3565
mc16_13TeV.395066.MGPy8EG_A14N23LO_SM_N2C1m_127_125_2L2MET75_MadSpin.deriv.DAOD_SUSY16.e6708_e5984_a875_r9364_r9315_p3565
mc16_13TeV.395067.MGPy8EG_A14N23LO_SM_N2C1m_128_125_2L2MET75_MadSpin.deriv.DAOD_SUSY16.e6587_e5984_a875_r9364_r9315_p3565
mc16_13TeV.395068.MGPy8EG_A14N23LO_SM_N2C1m_130_125_2L2MET75_MadSpin.deriv.DAOD_SUSY16.e6587_e5984_a875_r9364_r9315_p3565
mc16_13TeV.395069.MGPy8EG_A14N23LO_SM_N2C1m_135_125_2L2MET75_MadSpin.deriv.DAOD_SUSY16.e6708_e5984_a875_r9364_r9315_p3565
mc16_13TeV.395070.MGPy8EG_A14N23LO_SM_N2C1m_140_125_2L2MET75_MadSpin.deriv.DAOD_SUSY16.e6587_e5984_a875_r9364_r9315_p3565
mc16_13TeV.395071.MGPy8EG_A14N23LO_SM_N2C1m_145_125_2L2MET75_MadSpin.deriv.DAOD_SUSY16.e6587_e5984_a875_r9364_r9315_p3565
mc16_13TeV.395072.MGPy8EG_A14N23LO_SM_N2C1m_155_125_2L2MET75_MadSpin.deriv.DAOD_SUSY16.e6587_e5984_a875_r9364_r9315_p3565
mc16_13TeV.395073.MGPy8EG_A14N23LO_SM_N2C1m_165_125_2L2MET75_MadSpin.deriv.DAOD_SUSY16.e6587_e5984_a875_r9364_r9315_p3565
mc16_13TeV.395075.MGPy8EG_A14N23LO_SM_N2C1m_152_150_2L2MET75_MadSpin.deriv.DAOD_SUSY16.e6708_e5984_a875_r9364_r9315_p3565
mc16_13TeV.395076.MGPy8EG_A14N23LO_SM_N2C1m_153_150_2L2MET75_MadSpin.deriv.DAOD_SUSY16.e6587_e5984_a875_r9364_r9315_p3565
mc16_13TeV.395077.MGPy8EG_A14N23LO_SM_N2C1m_155_150_2L2MET75_MadSpin.deriv.DAOD_SUSY16.e6708_e5984_a875_r9364_r9315_p3565
mc16_13TeV.395078.MGPy8EG_A14N23LO_SM_N2C1m_160_150_2L2MET75_MadSpin.deriv.DAOD_SUSY16.e6587_e5984_a875_r9364_r9315_p3565
mc16_13TeV.395079.MGPy8EG_A14N23LO_SM_N2C1m_165_150_2L2MET75_MadSpin.deriv.DAOD_SUSY16.e6587_e5984_a875_r9364_r9315_p3565
mc16_13TeV.395080.MGPy8EG_A14N23LO_SM_N2C1m_170_150_2L2MET75_MadSpin.deriv.DAOD_SUSY16.e6708_e5984_a875_r9364_r9315_p3565
mc16_13TeV.395081.MGPy8EG_A14N23LO_SM_N2C1m_180_150_2L2MET75_MadSpin.deriv.DAOD_SUSY16.e6708_e5984_a875_r9364_r9315_p3565
mc16_13TeV.395082.MGPy8EG_A14N23LO_SM_N2C1m_190_150_2L2MET75_MadSpin.deriv.DAOD_SUSY16.e6587_e5984_a875_r9364_r9315_p3565
mc16_13TeV.395084.MGPy8EG_A14N23LO_SM_N2C1m_202_200_2L2MET75_MadSpin.deriv.DAOD_SUSY16.e6708_e5984_a875_r9364_r9315_p3565
mc16_13TeV.395085.MGPy8EG_A14N23LO_SM_N2C1m_203_200_2L2MET75_MadSpin.deriv.DAOD_SUSY16.e6587_e5984_a875_r9364_r9315_p3565
mc16_13TeV.395086.MGPy8EG_A14N23LO_SM_N2C1m_205_200_2L2MET75_MadSpin.deriv.DAOD_SUSY16.e6587_e5984_a875_r9364_r9315_p3565
mc16_13TeV.395087.MGPy8EG_A14N23LO_SM_N2C1m_210_200_2L2MET75_MadSpin.deriv.DAOD_SUSY16.e6587_e5984_a875_r9364_r9315_p3565
mc16_13TeV.395088.MGPy8EG_A14N23LO_SM_N2C1m_215_200_2L2MET75_MadSpin.deriv.DAOD_SUSY16.e6708_e5984_a875_r9364_r9315_p3565
mc16_13TeV.395089.MGPy8EG_A14N23LO_SM_N2C1m_220_200_2L2MET75_MadSpin.deriv.DAOD_SUSY16.e6587_e5984_a875_r9364_r9315_p3565
mc16_13TeV.395090.MGPy8EG_A14N23LO_SM_N2C1m_230_200_2L2MET75_MadSpin.deriv.DAOD_SUSY16.e6587_e5984_a875_r9364_r9315_p3565
mc16_13TeV.395091.MGPy8EG_A14N23LO_SM_N2C1m_240_200_2L2MET75_MadSpin.deriv.DAOD_SUSY16.e6587_e5984_a875_r9364_r9315_p3565
mc16_13TeV.395093.MGPy8EG_A14N23LO_SM_N2C1m_252_250_2L2MET75_MadSpin.deriv.DAOD_SUSY16.e6708_e5984_a875_r9364_r9315_p3565
mc16_13TeV.395094.MGPy8EG_A14N23LO_SM_N2C1m_253_250_2L2MET75_MadSpin.deriv.DAOD_SUSY16.e6587_e5984_a875_r9364_r9315_p3565
mc16_13TeV.395095.MGPy8EG_A14N23LO_SM_N2C1m_255_250_2L2MET75_MadSpin.deriv.DAOD_SUSY16.e6587_e5984_a875_r9364_r9315_p3565
mc16_13TeV.395096.MGPy8EG_A14N23LO_SM_N2C1m_260_250_2L2MET75_MadSpin.deriv.DAOD_SUSY16.e6587_e5984_a875_r9364_r9315_p3565
mc16_13TeV.395097.MGPy8EG_A14N23LO_SM_N2C1m_265_250_2L2MET75_MadSpin.deriv.DAOD_SUSY16.e6587_e5984_a875_r9364_r9315_p3565
mc16_13TeV.395098.MGPy8EG_A14N23LO_SM_N2C1m_270_250_2L2MET75_MadSpin.deriv.DAOD_SUSY16.e6587_e5984_a875_r9364_r9315_p3565
mc16_13TeV.395099.MGPy8EG_A14N23LO_SM_N2C1m_280_250_2L2MET75_MadSpin.deriv.DAOD_SUSY16.e6587_e5984_a875_r9364_r9315_p3565
mc16_13TeV.395100.MGPy8EG_A14N23LO_SM_N2C1m_290_250_2L2MET75_MadSpin.deriv.DAOD_SUSY16.e6587_e5984_a875_r9364_r9315_p3565
