
# NAME     : MGPy8EG_A14N23LO_SlepSlep_direct_%5_%6_2L2MET75
# DATA     : 0
# AF2      : 1
# PRIORITY : 0

mc16_13TeV:mc16_13TeV.395890.MGPy8EG_A14N23LO_SlepSlep_direct_70p0_69p5_2L2MET75.deriv.DAOD_SUSY16.e6755_e5984_a875_r9364_r9315_p3565
mc16_13TeV:mc16_13TeV.395891.MGPy8EG_A14N23LO_SlepSlep_direct_70p0_69p3_2L2MET75.deriv.DAOD_SUSY16.e6755_e5984_a875_r9364_r9315_p3565
mc16_13TeV:mc16_13TeV.395892.MGPy8EG_A14N23LO_SlepSlep_direct_70p0_69p0_2L2MET75.deriv.DAOD_SUSY16.e6710_e5984_a875_r9364_r9315_p3565
mc16_13TeV:mc16_13TeV.395893.MGPy8EG_A14N23LO_SlepSlep_direct_70p0_68p0_2L2MET75.deriv.DAOD_SUSY16.e6710_e5984_a875_r9364_r9315_p3565
mc16_13TeV:mc16_13TeV.395894.MGPy8EG_A14N23LO_SlepSlep_direct_70p0_65p0_2L2MET75.deriv.DAOD_SUSY16.e6710_e5984_a875_r9364_r9315_p3565
mc16_13TeV:mc16_13TeV.395895.MGPy8EG_A14N23LO_SlepSlep_direct_90p0_70p0_2L2MET75.deriv.DAOD_SUSY16.e6710_e5984_a875_r9364_r9315_p3565
mc16_13TeV:mc16_13TeV.395896.MGPy8EG_A14N23LO_SlepSlep_direct_90p0_50p0_2L2MET75.deriv.DAOD_SUSY16.e6710_e5984_a875_r9364_r9315_p3565
mc16_13TeV:mc16_13TeV.395899.MGPy8EG_A14N23LO_SlepSlep_direct_100p0_99p5_2L2MET75.deriv.DAOD_SUSY16.e6755_e5984_a875_r9364_r9315_p3565
mc16_13TeV:mc16_13TeV.395900.MGPy8EG_A14N23LO_SlepSlep_direct_100p0_99p3_2L2MET75.deriv.DAOD_SUSY16.e6755_e5984_a875_r9364_r9315_p3565
mc16_13TeV:mc16_13TeV.395901.MGPy8EG_A14N23LO_SlepSlep_direct_100p0_99p0_2L2MET75.deriv.DAOD_SUSY16.e6710_e5984_a875_r9364_r9315_p3565
mc16_13TeV:mc16_13TeV.395902.MGPy8EG_A14N23LO_SlepSlep_direct_100p0_98p0_2L2MET75.deriv.DAOD_SUSY16.e6710_e5984_a875_r9364_r9315_p3565
mc16_13TeV:mc16_13TeV.395903.MGPy8EG_A14N23LO_SlepSlep_direct_100p0_95p0_2L2MET75.deriv.DAOD_SUSY16.e6710_e5984_a875_r9364_r9315_p3565
mc16_13TeV:mc16_13TeV.395904.MGPy8EG_A14N23LO_SlepSlep_direct_100p0_90p0_2L2MET75.deriv.DAOD_SUSY16.e6710_e5984_a875_r9364_r9315_p3565
mc16_13TeV:mc16_13TeV.395905.MGPy8EG_A14N23LO_SlepSlep_direct_100p0_80p0_2L2MET75.deriv.DAOD_SUSY16.e6710_e5984_a875_r9364_r9315_p3565
mc16_13TeV:mc16_13TeV.395906.MGPy8EG_A14N23LO_SlepSlep_direct_100p0_70p0_2L2MET75.deriv.DAOD_SUSY16.e6710_e5984_a875_r9364_r9315_p3565
mc16_13TeV:mc16_13TeV.395907.MGPy8EG_A14N23LO_SlepSlep_direct_100p0_60p0_2L2MET75.deriv.DAOD_SUSY16.e6710_e5984_a875_r9364_r9315_p3565
mc16_13TeV:mc16_13TeV.395911.MGPy8EG_A14N23LO_SlepSlep_direct_125p0_124p5_2L2MET75.deriv.DAOD_SUSY16.e6755_e5984_a875_r9364_r9315_p3565
mc16_13TeV:mc16_13TeV.395912.MGPy8EG_A14N23LO_SlepSlep_direct_125p0_124p3_2L2MET75.deriv.DAOD_SUSY16.e6755_e5984_a875_r9364_r9315_p3565
mc16_13TeV:mc16_13TeV.395913.MGPy8EG_A14N23LO_SlepSlep_direct_125p0_124p0_2L2MET75.deriv.DAOD_SUSY16.e6710_e5984_a875_r9364_r9315_p3565
mc16_13TeV:mc16_13TeV.395914.MGPy8EG_A14N23LO_SlepSlep_direct_125p0_123p0_2L2MET75.deriv.DAOD_SUSY16.e6710_e5984_a875_r9364_r9315_p3565
mc16_13TeV:mc16_13TeV.395915.MGPy8EG_A14N23LO_SlepSlep_direct_125p0_120p0_2L2MET75.deriv.DAOD_SUSY16.e6710_e5984_a875_r9364_r9315_p3565
mc16_13TeV:mc16_13TeV.395916.MGPy8EG_A14N23LO_SlepSlep_direct_125p0_115p0_2L2MET75.deriv.DAOD_SUSY16.e6710_e5984_a875_r9364_r9315_p3565
mc16_13TeV:mc16_13TeV.395917.MGPy8EG_A14N23LO_SlepSlep_direct_125p0_105p0_2L2MET75.deriv.DAOD_SUSY16.e6710_e5984_a875_r9364_r9315_p3565
mc16_13TeV:mc16_13TeV.395918.MGPy8EG_A14N23LO_SlepSlep_direct_125p0_95p0_2L2MET75.deriv.DAOD_SUSY16.e6710_e5984_a875_r9364_r9315_p3565
mc16_13TeV:mc16_13TeV.395919.MGPy8EG_A14N23LO_SlepSlep_direct_125p0_85p0_2L2MET75.deriv.DAOD_SUSY16.e6710_e5984_a875_r9364_r9315_p3565
mc16_13TeV:mc16_13TeV.395921.MGPy8EG_A14N23LO_SlepSlep_direct_150p0_149p5_2L2MET75.deriv.DAOD_SUSY16.e6755_e5984_a875_r9364_r9315_p3565
mc16_13TeV:mc16_13TeV.395922.MGPy8EG_A14N23LO_SlepSlep_direct_150p0_124p3_2L2MET75.deriv.DAOD_SUSY16.e6710_e5984_a875_r9364_r9315_p3565
mc16_13TeV:mc16_13TeV.395923.MGPy8EG_A14N23LO_SlepSlep_direct_150p0_149p0_2L2MET75.deriv.DAOD_SUSY16.e6710_e5984_a875_r9364_r9315_p3565
mc16_13TeV:mc16_13TeV.395924.MGPy8EG_A14N23LO_SlepSlep_direct_150p0_148p0_2L2MET75.deriv.DAOD_SUSY16.e6710_e5984_a875_r9364_r9315_p3565
mc16_13TeV:mc16_13TeV.395925.MGPy8EG_A14N23LO_SlepSlep_direct_150p0_145p0_2L2MET75.deriv.DAOD_SUSY16.e6710_e5984_a875_r9364_r9315_p3565
mc16_13TeV:mc16_13TeV.395926.MGPy8EG_A14N23LO_SlepSlep_direct_150p0_140p0_2L2MET75.deriv.DAOD_SUSY16.e6710_e5984_a875_r9364_r9315_p3565
mc16_13TeV:mc16_13TeV.395927.MGPy8EG_A14N23LO_SlepSlep_direct_150p0_130p0_2L2MET75.deriv.DAOD_SUSY16.e6710_e5984_a875_r9364_r9315_p3565
mc16_13TeV:mc16_13TeV.395928.MGPy8EG_A14N23LO_SlepSlep_direct_150p0_120p0_2L2MET75.deriv.DAOD_SUSY16.e6710_e5984_a875_r9364_r9315_p3565
mc16_13TeV:mc16_13TeV.395929.MGPy8EG_A14N23LO_SlepSlep_direct_150p0_110p0_2L2MET75.deriv.DAOD_SUSY16.e6710_e5984_a875_r9364_r9315_p3565
mc16_13TeV:mc16_13TeV.395932.MGPy8EG_A14N23LO_SlepSlep_direct_175p0_174p0_2L2MET75.deriv.DAOD_SUSY16.e6710_e5984_a875_r9364_r9315_p3565
mc16_13TeV:mc16_13TeV.395933.MGPy8EG_A14N23LO_SlepSlep_direct_175p0_173p0_2L2MET75.deriv.DAOD_SUSY16.e6710_e5984_a875_r9364_r9315_p3565
mc16_13TeV:mc16_13TeV.395934.MGPy8EG_A14N23LO_SlepSlep_direct_175p0_170p0_2L2MET75.deriv.DAOD_SUSY16.e6710_e5984_a875_r9364_r9315_p3565
mc16_13TeV:mc16_13TeV.395935.MGPy8EG_A14N23LO_SlepSlep_direct_175p0_165p0_2L2MET75.deriv.DAOD_SUSY16.e6710_e5984_a875_r9364_r9315_p3565
mc16_13TeV:mc16_13TeV.395936.MGPy8EG_A14N23LO_SlepSlep_direct_175p0_155p0_2L2MET75.deriv.DAOD_SUSY16.e6710_e5984_a875_r9364_r9315_p3565
mc16_13TeV:mc16_13TeV.395937.MGPy8EG_A14N23LO_SlepSlep_direct_175p0_145p0_2L2MET75.deriv.DAOD_SUSY16.e6710_e5984_a875_r9364_r9315_p3565
mc16_13TeV:mc16_13TeV.395938.MGPy8EG_A14N23LO_SlepSlep_direct_175p0_135p0_2L2MET75.deriv.DAOD_SUSY16.e6710_e5984_a875_r9364_r9315_p3565
mc16_13TeV:mc16_13TeV.395939.MGPy8EG_A14N23LO_SlepSlep_direct_200p0_199p0_2L2MET75.deriv.DAOD_SUSY16.e6710_e5984_a875_r9364_r9315_p3565
mc16_13TeV:mc16_13TeV.395940.MGPy8EG_A14N23LO_SlepSlep_direct_200p0_198p0_2L2MET75.deriv.DAOD_SUSY16.e6710_e5984_a875_r9364_r9315_p3565
mc16_13TeV:mc16_13TeV.395941.MGPy8EG_A14N23LO_SlepSlep_direct_200p0_195p0_2L2MET75.deriv.DAOD_SUSY16.e6710_e5984_a875_r9364_r9315_p3565
mc16_13TeV:mc16_13TeV.395942.MGPy8EG_A14N23LO_SlepSlep_direct_200p0_190p0_2L2MET75.deriv.DAOD_SUSY16.e6710_e5984_a875_r9364_r9315_p3565
mc16_13TeV:mc16_13TeV.395943.MGPy8EG_A14N23LO_SlepSlep_direct_200p0_180p0_2L2MET75.deriv.DAOD_SUSY16.e6710_e5984_a875_r9364_r9315_p3565
mc16_13TeV:mc16_13TeV.395944.MGPy8EG_A14N23LO_SlepSlep_direct_200p0_170p0_2L2MET75.deriv.DAOD_SUSY16.e6710_e5984_a875_r9364_r9315_p3565
mc16_13TeV:mc16_13TeV.395945.MGPy8EG_A14N23LO_SlepSlep_direct_200p0_160p0_2L2MET75.deriv.DAOD_SUSY16.e6710_e5984_a875_r9364_r9315_p3565
mc16_13TeV:mc16_13TeV.395950.MGPy8EG_A14N23LO_SlepSlep_direct_225p0_224p0_2L2MET75.deriv.DAOD_SUSY16.e6710_e5984_a875_r9364_r9315_p3565
mc16_13TeV:mc16_13TeV.395951.MGPy8EG_A14N23LO_SlepSlep_direct_225p0_223p0_2L2MET75.deriv.DAOD_SUSY16.e6710_e5984_a875_r9364_r9315_p3565
mc16_13TeV:mc16_13TeV.395952.MGPy8EG_A14N23LO_SlepSlep_direct_225p0_220p0_2L2MET75.deriv.DAOD_SUSY16.e6710_e5984_a875_r9364_r9315_p3565
mc16_13TeV:mc16_13TeV.395953.MGPy8EG_A14N23LO_SlepSlep_direct_225p0_215p0_2L2MET75.deriv.DAOD_SUSY16.e6710_e5984_a875_r9364_r9315_p3565
mc16_13TeV:mc16_13TeV.395954.MGPy8EG_A14N23LO_SlepSlep_direct_225p0_205p0_2L2MET75.deriv.DAOD_SUSY16.e6710_e5984_a875_r9364_r9315_p3565
mc16_13TeV:mc16_13TeV.395955.MGPy8EG_A14N23LO_SlepSlep_direct_225p0_195p0_2L2MET75.deriv.DAOD_SUSY16.e6710_e5984_a875_r9364_r9315_p3565
mc16_13TeV:mc16_13TeV.395956.MGPy8EG_A14N23LO_SlepSlep_direct_225p0_185p0_2L2MET75.deriv.DAOD_SUSY16.e6710_e5984_a875_r9364_r9315_p3565
mc16_13TeV:mc16_13TeV.395957.MGPy8EG_A14N23LO_SlepSlep_direct_250p0_249p0_2L2MET75.deriv.DAOD_SUSY16.e6710_e5984_a875_r9364_r9315_p3565
mc16_13TeV:mc16_13TeV.395958.MGPy8EG_A14N23LO_SlepSlep_direct_250p0_248p0_2L2MET75.deriv.DAOD_SUSY16.e6710_e5984_a875_r9364_r9315_p3565
mc16_13TeV:mc16_13TeV.395959.MGPy8EG_A14N23LO_SlepSlep_direct_250p0_245p0_2L2MET75.deriv.DAOD_SUSY16.e6710_e5984_a875_r9364_r9315_p3565
mc16_13TeV:mc16_13TeV.395960.MGPy8EG_A14N23LO_SlepSlep_direct_250p0_240p0_2L2MET75.deriv.DAOD_SUSY16.e6710_e5984_a875_r9364_r9315_p3565
mc16_13TeV:mc16_13TeV.395961.MGPy8EG_A14N23LO_SlepSlep_direct_250p0_230p0_2L2MET75.deriv.DAOD_SUSY16.e6710_e5984_a875_r9364_r9315_p3565
mc16_13TeV:mc16_13TeV.395966.MGPy8EG_A14N23LO_SlepSlep_direct_300p0_298p0_2L2MET75.deriv.DAOD_SUSY16.e6710_e5984_a875_r9364_r9315_p3565
mc16_13TeV:mc16_13TeV.395967.MGPy8EG_A14N23LO_SlepSlep_direct_300p0_295p0_2L2MET75.deriv.DAOD_SUSY16.e6710_e5984_a875_r9364_r9315_p3565
mc16_13TeV:mc16_13TeV.395968.MGPy8EG_A14N23LO_SlepSlep_direct_300p0_290p0_2L2MET75.deriv.DAOD_SUSY16.e6710_e5984_a875_r9364_r9315_p3565
