# NAME          : diboson_fullLep_gg
# Data          : 0
# AF2           : 0
# PRIORITY      : 0

mc16_13TeV.345705.Sherpa_222_NNPDF30NNLO_ggllll_0M4l130.deriv.DAOD_PHYS.e6213_s3126_r9364_p5001
mc16_13TeV.345706.Sherpa_222_NNPDF30NNLO_ggllll_130M4l.deriv.DAOD_PHYS.e6213_s3126_r9364_p5001
mc16_13TeV.345715.Sherpa_222_NNPDF30NNLO_ggllvvInt.deriv.DAOD_PHYS.e6525_s3126_r9364_p5001
mc16_13TeV.345718.Sherpa_222_NNPDF30NNLO_ggllvvWW.deriv.DAOD_PHYS.e6525_s3126_r9364_p5001
mc16_13TeV.345723.Sherpa_222_NNPDF30NNLO_ggllvvZZ.deriv.DAOD_PHYS.e6213_s3126_r9364_p5001
