
# NAME 		: MGPy8EG_A14N23LO_NUHM2_mu_%5_m12_%6_N2C1m_2L2MET75_MS
# DATA 		: 0
# AF2 		: 1
# PRIORITY 	: 0

mc16_13TeV.397362.MGPy8EG_A14N23LO_NUHM2_mu_90_m12_3000_N2C1m_2L2MET75_MS.deriv.DAOD_SUSY16.e7222_a875_r10201_p3652
mc16_13TeV.397363.MGPy8EG_A14N23LO_NUHM2_mu_90_m12_5000_N2C1m_2L2MET75_MS.deriv.DAOD_SUSY16.e7222_a875_r10201_p3652
mc16_13TeV.397364.MGPy8EG_A14N23LO_NUHM2_mu_90_m12_8000_N2C1m_2L2MET75_MS.deriv.DAOD_SUSY16.e7222_a875_r10201_p3652
mc16_13TeV.397365.MGPy8EG_A14N23LO_NUHM2_mu_100_m12_800_N2C1m_2L2MET75_MS.deriv.DAOD_SUSY16.e7222_a875_r10201_p3652
mc16_13TeV.397366.MGPy8EG_A14N23LO_NUHM2_mu_100_m12_1200_N2C1m_2L2MET75_MS.deriv.DAOD_SUSY16.e7222_a875_r10201_p3652
mc16_13TeV.397367.MGPy8EG_A14N23LO_NUHM2_mu_100_m12_2000_N2C1m_2L2MET75_MS.deriv.DAOD_SUSY16.e7222_a875_r10201_p3652
mc16_13TeV.397368.MGPy8EG_A14N23LO_NUHM2_mu_100_m12_3000_N2C1m_2L2MET75_MS.deriv.DAOD_SUSY16.e7222_a875_r10201_p3652
mc16_13TeV.397369.MGPy8EG_A14N23LO_NUHM2_mu_100_m12_5000_N2C1m_2L2MET75_MS.deriv.DAOD_SUSY16.e7222_a875_r10201_p3652
mc16_13TeV.397370.MGPy8EG_A14N23LO_NUHM2_mu_100_m12_8000_N2C1m_2L2MET75_MS.deriv.DAOD_SUSY16.e7222_a875_r10201_p3652
mc16_13TeV.397371.MGPy8EG_A14N23LO_NUHM2_mu_110_m12_350_N2C1m_2L2MET75_MS.deriv.DAOD_SUSY16.e7222_a875_r10201_p3652
mc16_13TeV.397372.MGPy8EG_A14N23LO_NUHM2_mu_110_m12_500_N2C1m_2L2MET75_MS.deriv.DAOD_SUSY16.e7222_a875_r10201_p3652
mc16_13TeV.397373.MGPy8EG_A14N23LO_NUHM2_mu_110_m12_800_N2C1m_2L2MET75_MS.deriv.DAOD_SUSY16.e7222_a875_r10201_p3652
mc16_13TeV.397374.MGPy8EG_A14N23LO_NUHM2_mu_110_m12_1200_N2C1m_2L2MET75_MS.deriv.DAOD_SUSY16.e7222_a875_r10201_p3652
mc16_13TeV.397375.MGPy8EG_A14N23LO_NUHM2_mu_110_m12_2000_N2C1m_2L2MET75_MS.deriv.DAOD_SUSY16.e7222_a875_r10201_p3652
mc16_13TeV.397376.MGPy8EG_A14N23LO_NUHM2_mu_110_m12_3000_N2C1m_2L2MET75_MS.deriv.DAOD_SUSY16.e7222_a875_r10201_p3652
mc16_13TeV.397377.MGPy8EG_A14N23LO_NUHM2_mu_110_m12_5000_N2C1m_2L2MET75_MS.deriv.DAOD_SUSY16.e7222_a875_r10201_p3652
mc16_13TeV.397378.MGPy8EG_A14N23LO_NUHM2_mu_110_m12_8000_N2C1m_2L2MET75_MS.deriv.DAOD_SUSY16.e7222_a875_r10201_p3652
mc16_13TeV.397379.MGPy8EG_A14N23LO_NUHM2_mu_130_m12_350_N2C1m_2L2MET75_MS.deriv.DAOD_SUSY16.e7222_a875_r10201_p3652
mc16_13TeV.397380.MGPy8EG_A14N23LO_NUHM2_mu_130_m12_500_N2C1m_2L2MET75_MS.deriv.DAOD_SUSY16.e7222_a875_r10201_p3652
mc16_13TeV.397381.MGPy8EG_A14N23LO_NUHM2_mu_130_m12_800_N2C1m_2L2MET75_MS.deriv.DAOD_SUSY16.e7222_a875_r10201_p3652
mc16_13TeV.397382.MGPy8EG_A14N23LO_NUHM2_mu_130_m12_1200_N2C1m_2L2MET75_MS.deriv.DAOD_SUSY16.e7222_a875_r10201_p3652
mc16_13TeV.397383.MGPy8EG_A14N23LO_NUHM2_mu_130_m12_2000_N2C1m_2L2MET75_MS.deriv.DAOD_SUSY16.e7222_a875_r10201_p3652
mc16_13TeV.397384.MGPy8EG_A14N23LO_NUHM2_mu_130_m12_3000_N2C1m_2L2MET75_MS.deriv.DAOD_SUSY16.e7222_a875_r10201_p3652
mc16_13TeV.397385.MGPy8EG_A14N23LO_NUHM2_mu_130_m12_5000_N2C1m_2L2MET75_MS.deriv.DAOD_SUSY16.e7222_a875_r10201_p3652
mc16_13TeV.397386.MGPy8EG_A14N23LO_NUHM2_mu_130_m12_8000_N2C1m_2L2MET75_MS.deriv.DAOD_SUSY16.e7222_a875_r10201_p3652
mc16_13TeV.397387.MGPy8EG_A14N23LO_NUHM2_mu_150_m12_350_N2C1m_2L2MET75_MS.deriv.DAOD_SUSY16.e7222_a875_r10201_p3652
mc16_13TeV.397388.MGPy8EG_A14N23LO_NUHM2_mu_150_m12_500_N2C1m_2L2MET75_MS.deriv.DAOD_SUSY16.e7222_a875_r10201_p3652
mc16_13TeV.397389.MGPy8EG_A14N23LO_NUHM2_mu_150_m12_800_N2C1m_2L2MET75_MS.deriv.DAOD_SUSY16.e7222_a875_r10201_p3652
mc16_13TeV.397390.MGPy8EG_A14N23LO_NUHM2_mu_150_m12_1200_N2C1m_2L2MET75_MS.deriv.DAOD_SUSY16.e7222_a875_r10201_p3652
mc16_13TeV.397391.MGPy8EG_A14N23LO_NUHM2_mu_150_m12_2000_N2C1m_2L2MET75_MS.deriv.DAOD_SUSY16.e7222_a875_r10201_p3652
mc16_13TeV.397392.MGPy8EG_A14N23LO_NUHM2_mu_150_m12_3000_N2C1m_2L2MET75_MS.deriv.DAOD_SUSY16.e7222_a875_r10201_p3652
mc16_13TeV.397393.MGPy8EG_A14N23LO_NUHM2_mu_150_m12_5000_N2C1m_2L2MET75_MS.deriv.DAOD_SUSY16.e7222_a875_r10201_p3652
mc16_13TeV.397394.MGPy8EG_A14N23LO_NUHM2_mu_150_m12_8000_N2C1m_2L2MET75_MS.deriv.DAOD_SUSY16.e7222_a875_r10201_p3652
mc16_13TeV.397395.MGPy8EG_A14N23LO_NUHM2_mu_170_m12_350_N2C1m_2L2MET75_MS.deriv.DAOD_SUSY16.e7222_a875_r10201_p3652
mc16_13TeV.397396.MGPy8EG_A14N23LO_NUHM2_mu_170_m12_500_N2C1m_2L2MET75_MS.deriv.DAOD_SUSY16.e7222_a875_r10201_p3652
mc16_13TeV.397397.MGPy8EG_A14N23LO_NUHM2_mu_170_m12_800_N2C1m_2L2MET75_MS.deriv.DAOD_SUSY16.e7222_a875_r10201_p3652
mc16_13TeV.397398.MGPy8EG_A14N23LO_NUHM2_mu_170_m12_1200_N2C1m_2L2MET75_MS.deriv.DAOD_SUSY16.e7222_a875_r10201_p3652
mc16_13TeV.397399.MGPy8EG_A14N23LO_NUHM2_mu_170_m12_2000_N2C1m_2L2MET75_MS.deriv.DAOD_SUSY16.e7222_a875_r10201_p3652
mc16_13TeV.397400.MGPy8EG_A14N23LO_NUHM2_mu_170_m12_3000_N2C1m_2L2MET75_MS.deriv.DAOD_SUSY16.e7222_a875_r10201_p3652
mc16_13TeV.397401.MGPy8EG_A14N23LO_NUHM2_mu_170_m12_5000_N2C1m_2L2MET75_MS.deriv.DAOD_SUSY16.e7222_a875_r10201_p3652
mc16_13TeV.397402.MGPy8EG_A14N23LO_NUHM2_mu_200_m12_350_N2C1m_2L2MET75_MS.deriv.DAOD_SUSY16.e7222_a875_r10201_p3652
mc16_13TeV.397403.MGPy8EG_A14N23LO_NUHM2_mu_200_m12_500_N2C1m_2L2MET75_MS.deriv.DAOD_SUSY16.e7222_a875_r10201_p3652
mc16_13TeV.397404.MGPy8EG_A14N23LO_NUHM2_mu_200_m12_800_N2C1m_2L2MET75_MS.deriv.DAOD_SUSY16.e7222_a875_r10201_p3652
mc16_13TeV.397405.MGPy8EG_A14N23LO_NUHM2_mu_200_m12_1200_N2C1m_2L2MET75_MS.deriv.DAOD_SUSY16.e7222_a875_r10201_p3652
mc16_13TeV.397406.MGPy8EG_A14N23LO_NUHM2_mu_200_m12_2000_N2C1m_2L2MET75_MS.deriv.DAOD_SUSY16.e7222_a875_r10201_p3652
mc16_13TeV.397407.MGPy8EG_A14N23LO_NUHM2_mu_200_m12_3000_N2C1m_2L2MET75_MS.deriv.DAOD_SUSY16.e7222_a875_r10201_p3652
mc16_13TeV.397408.MGPy8EG_A14N23LO_NUHM2_mu_200_m12_5000_N2C1m_2L2MET75_MS.deriv.DAOD_SUSY16.e7222_a875_r10201_p3652
