
# NAME 		 : Strong_Znunu_jets_MG_TightVBF 
# DATA 		 : 0 
# AF2 		 : 0 
# PRIORITY 	 : 0 

mc16_13TeV:mc16_13TeV.311429.MadGraphPythia8EvtGen_A14NNPDF23LO_Znunu_TightVBF_Np01.deriv.DAOD_EXOT5.e7430_s3126_r10724_p4060
mc16_13TeV:mc16_13TeV.311430.MadGraphPythia8EvtGen_A14NNPDF23LO_Znunu_TightVBF_Np2.deriv.DAOD_EXOT5.e7430_s3126_r10724_p4060
mc16_13TeV:mc16_13TeV.311431.MadGraphPythia8EvtGen_A14NNPDF23LO_Znunu_TightVBF_Np3.deriv.DAOD_EXOT5.e7430_s3126_r10724_p4060
mc16_13TeV:mc16_13TeV.311432.MadGraphPythia8EvtGen_A14NNPDF23LO_Znunu_TightVBF_Np4.deriv.DAOD_EXOT5.e7430_s3126_r10724_p4060