
# NAME 		 : Strong_Wjets_Sh221_pTV 
# DATA 		 : 0 
# AF2 		 : 0 
# PRIORITY 	 : 0 

mc16_13TeV.364224.Sherpa_221_NNPDF30NNLO_Wmunu_PTV500_1000.deriv.DAOD_EXOT5.e5626_s3126_r10724_p4060
mc16_13TeV.364225.Sherpa_221_NNPDF30NNLO_Wmunu_PTV1000_E_CMS.deriv.DAOD_EXOT5.e5626_s3126_r10724_p4060
mc16_13TeV.364226.Sherpa_221_NNPDF30NNLO_Wenu_PTV500_1000.deriv.DAOD_EXOT5.e5626_s3126_r10724_p4060
mc16_13TeV.364227.Sherpa_221_NNPDF30NNLO_Wenu_PTV1000_E_CMS.deriv.DAOD_EXOT5.e5626_s3126_r10724_p4060
mc16_13TeV.364228.Sherpa_221_NNPDF30NNLO_Wtaunu_PTV500_1000.deriv.DAOD_EXOT5.e5626_s3126_r10724_p4060
mc16_13TeV.364229.Sherpa_221_NNPDF30NNLO_Wtaunu_PTV1000_E_CMS.deriv.DAOD_EXOT5.e5626_s3126_r10724_p4060