
# NAME 		: alt_DY_PowPy
# DATA 		: 0
# AF2 		: 0
# PRIORITY 	: 0

mc16_13TeV.361664.PowhegPythia8EvtGen_AZNLOCTEQ6L1_DYee_6M10.deriv.DAOD_SUSY16.e4770_e5984_s3126_r9364_r9315_p3387
mc16_13TeV.361665.PowhegPythia8EvtGen_AZNLOCTEQ6L1_DYee_10M60.deriv.DAOD_SUSY16.e4770_e5984_s3126_r9364_r9315_p3387
mc16_13TeV.361666.PowhegPythia8EvtGen_AZNLOCTEQ6L1_DYmumu_6M10.deriv.DAOD_SUSY16.e4770_e5984_s3126_r9364_r9315_p3387
mc16_13TeV.361667.PowhegPythia8EvtGen_AZNLOCTEQ6L1_DYmumu_10M60.deriv.DAOD_SUSY16.e4770_e5984_s3126_r9364_r9315_p3387
mc16_13TeV.361668.PowhegPythia8EvtGen_AZNLOCTEQ6L1_DYtautau_6M10.deriv.DAOD_SUSY16.e4784_e5984_s3126_r9364_r9315_p3387
mc16_13TeV.361669.PowhegPythia8EvtGen_AZNLOCTEQ6L1_DYtautau_10M60.deriv.DAOD_SUSY16.e4770_e5984_s3126_r9364_r9315_p3387
