mSlepLH2gen,mN1
318.38199501357985,1.0
318.1663423913852,5.030585858585859
318.2045720305398,9.061171717171717
318.4669652545325,13.091757575757576
318.912200828891,17.122343434343435
319.3890909090909,20.434824858347763
319.4886098326754,21.152929292929297
320.1309895292267,25.183515151515156
320.78470245203573,29.214101010101015
321.38056112422316,33.24468686868687
321.8485155699962,37.27527272727273
322.1236574449956,41.30585858585859
322.1512081345321,45.336444444444446
321.88715618345077,49.36703030303031
321.29663309424507,53.39761616161617
320.3585877718897,57.42820202020202
319.3890909090909,60.50896253674388
319.079192601784,61.45878787878788
317.47905434275447,65.48937373737374
315.6274653130208,69.5199595959596
315.35854545454544,70.08099940046682
313.5636771139543,73.55054545454544
311.453132530462,77.58113131313131
311.32800000000003,77.82983980033971
309.3163216509671,81.61171717171716
307.29745454545457,85.61484074240175
307.2832346539571,85.64230303030303
305.343273247397,89.67288888888888
303.48112224886216,93.70347474747474
303.2669090909091,94.20437266458818
301.813367925687,97.73406060606061
300.929828738773,101.76464646464646
301.05106415402906,105.79523232323233
301.17535478717275,109.82581818181819
301.2007233983764,113.85640404040404
301.07912717735246,117.8869898989899
300.76448026883884,121.91757575757578
300.20331881956383,125.94816161616161
299.329876770336,129.97874747474748
299.2363636363636,130.30163844654564
298.06743047396185,134.00933333333333
296.21509694875544,138.0399191919192
295.2058181818182,139.69800706956644
293.3510093313836,142.07050505050503
291.1752727272727,144.09411208629308
287.94657880399893,146.1010909090909
287.14472727272727,146.51895325763667
283.1141818181818,148.06344614640307
279.08363636363634,148.97102584310358
275.05309090909094,149.51109828844295
274.4231192276007,150.13167676767677
273.3173429641856,154.16226262626265
271.0225454545455,157.68032308856314
270.6381302508525,158.19284848484847
266.992,161.25575255808954
265.1725696691624,162.22343434343435
262.96145454545456,163.1087597253457
258.9309090909091,163.93446593346334
254.90036363636366,163.7881236060794
250.8698181818182,162.4686423034825
250.49087895145342,162.22343434343435
246.83927272727277,160.31531354517162
243.77437964092815,158.19284848484847
242.8087272727273,157.5789707807947
238.77818181818185,154.58962260520917
238.21632344907948,154.16226262626265
234.7476363636364,151.57788693516804
232.68916430777216,150.13167676767677
230.71709090909096,148.77375147993843
226.6865454545455,146.2247372202133
226.48160536898015,146.1010909090909
222.65600000000003,143.85901532551765
219.2071469068147,142.07050505050503
218.62545454545457,141.77785496103584
214.59490909090914,139.92903725379864
210.56436363636368,138.3775232966126
209.54848766768322,138.0399191919192
206.53381818181822,136.97864751056747
202.50327272727276,135.46328302657662
200.23213345313184,134.00933333333333
198.4727272727273,132.94449764396643
194.5697125362897,129.97874747474748
194.44218181818187,129.88649361692333
190.4116363636364,126.81055917283949
189.21599600852258,125.94816161616161
186.38109090909094,123.91551507738208
183.4874844976378,121.91757575757575
182.35054545454548,121.15328783490494
178.32000000000002,118.37998983410466
177.65394450035805,117.8869898989899
174.2894545454546,115.578906490955
171.93445894880477,113.85640404040404
170.25890909090913,112.7186084546829
166.22836363636367,109.83697625377408
166.21277442684706,109.82581818181818
162.1978181818182,106.99336490228117
160.3917559377031,105.79523232323233
158.16727272727275,104.28639654226293
154.1367272727273,101.90303209774596
153.87972872213427,101.76464646464646
150.10618181818185,99.37855993795745
148.2019688123029,97.73406060606061
146.07563636363636,95.70200632282823
143.86897756818126,93.70347474747474
142.04509090909093,92.20417811229777
138.0145454545455,89.69865584157841
137.96033839201195,89.67288888888888
133.98400000000004,88.10596642692269
129.95345454545458,87.04454749360553
125.9229090909091,86.15789626806763
121.89236363636365,86.19922636304229
117.8618181818182,86.42871349613355
113.83127272727273,86.45898527858245
109.80072727272729,86.05630877224333
108.24549584637217,85.64230303030303
105.77018181818184,84.81525979804452
101.73963636363638,82.20828498291988
100.9560026800456,81.61171717171716
97.70909090909095,78.70929048765875
95.51636881374952,77.58113131313131
93.67854545454547,77.01622139210382
89.64800000000001,76.013917097218
85.61745454545456,74.56828991257309
83.45506949589503,73.55054545454544
81.5869090909091,72.78481682717883
77.55636363636366,70.7447330789493
75.34851865682262,69.5199595959596
73.5258181818182,68.50113302825662
69.49527272727275,66.12772022202829
68.4238994975641,65.48937373737374
65.46472727272729,63.63496330031957
62.003974792212986,61.45878787878788
61.434181818181834,61.075894870569854
57.40363636363639,58.41145519131362
55.88779627202633,57.42820202020202
53.37309090909093,55.669168640727406
50.05200950585627,53.39761616161617
49.34254545454547,52.87184659552406
45.31200000000001,49.979906780927166
44.429416783611195,49.367030303030305
41.28145454545456,46.997863609339674
38.999638502558554,45.336444444444446
37.250909090909104,43.956174798571325
33.768704008985864,41.30585858585859
33.22036363636365,40.853826083596786
29.189818181818204,37.663603611002074
28.67949555033208,37.27527272727273
25.159272727272747,34.38523583285951
23.71463761635208,33.24468686868687
21.12872727272729,31.046282520851566
18.884828659059217,29.214101010101015
17.098181818181835,27.646619879079672
14.172532744023218,25.183515151515156
13.06763636363638,24.186305861483387
9.563419286335257,21.152929292929294
9.037090909090924,20.665645114315872
5.045763712146284,17.122343434343435
5.006545454545471,17.085193307535537
0.9760000000000157,13.425749470804721
0.0,0.0
