mStau,mN1
105.918,0.0
108.225,6.383
112.044,13.698
116.415,21.457
120.914,29.121
125.542,36.698
130.556,43.956
136.341,50.875
143.026,56.458
150.611,61.284
158.581,65.307
166.294,69.401
173.879,74.001
181.335,78.956
188.792,83.842
196.377,88.501
204.218,92.627
212.318,96.586
220.159,100.658
227.873,105.293
235.329,110.018
242.914,114.695
250.627,118.989
258.726,122.775
266.825,126.403
275.181,129.822
283.556,132.712
292.151,134.937
301.021,136.038
310.920,134.625
317.605,131.140
323.647,124.812
328.532,117.538
333.160,109.670
337.531,102.044
342.031,94.322
346.659,86.612
351.030,78.948
355.272,71.248
359.000,63.085
361.957,54.765
364.271,46.391
366.199,37.201
367.356,28.685
368.385,20.475
369.027,14.598
369.542,10.701
370.020,0.0
