mSlepLH2gen,mN1
76.245,74.088
76.890,74.662
77.534,75.212
78.179,75.750
78.823,76.384
79.467,76.951
80.112,77.465
80.756,78.109
81.401,78.709
82.045,79.320
82.690,79.834
83.334,80.501
83.979,81.145
84.623,81.779
85.268,82.380
85.912,82.920
86.556,83.581
87.201,84.238
87.845,84.829
88.490,85.446
89.134,86.110
89.779,86.854
90.423,87.535
91.068,88.052
91.712,88.553
92.357,89.000
93.001,89.469
93.645,89.981
94.290,90.458
94.934,90.918
95.579,91.331
96.223,91.639
96.868,91.702
97.512,91.520
98.086,90.427
98.677,89.498
98.999,88.539
98.776,87.724
98.462,85.984
98.231,84.056
98.398,82.485
98.504,81.342
98.652,80.384
98.543,79.178
98.330,78.200
97.909,76.982
97.446,75.608
97.325,73.680
97.330,71.881
97.227,70.507
97.138,68.482
97.364,66.793
97.472,65.301
97.066,64.338
96.804,63.170
96.645,61.517
96.942,59.758
96.942,58.353
96.372,57.658
95.687,56.917
95.284,55.420
95.566,53.454
95.852,51.801
95.678,50.437
95.529,49.228
95.083,48.069
94.655,46.439
95.058,44.747
95.554,43.866
96.104,42.704
96.372,41.247
96.769,40.044
97.041,38.485
97.041,37.007
96.933,35.413
97.215,34.204
97.053,32.840
97.123,31.097
97.165,29.902
97.165,28.568
97.302,27.361
97.386,25.838
97.487,25.061
97.349,24.185
97.009,22.680
97.016,21.040
96.970,19.388
97.016,18.048
96.940,16.973
97.190,14.989
97.215,13.403
97.215,11.787
97.264,10.453
97.264,8.964
97.339,8.032
97.430,6.646
97.314,5.290
97.248,3.137
97.289,1.139
97.289,0.0
50.0,0.0
50.0,47.8
