
# NAME 		: alt_ttbar_Sherpa_221_singleLepton
# DATA 		: 0
# AF2 		: 0
# PRIORITY 	: 0

mc16_13TeV.410250.Sherpa_221_NNPDF30NNLO_ttbar_SingleLeptonP_MEPS_NLO.deriv.DAOD_SUSY16.e5450_e5984_s3126_r10201_r10210_p3387
mc16_13TeV.410251.Sherpa_221_NNPDF30NNLO_ttbar_SingleLeptonM_MEPS_NLO.deriv.DAOD_SUSY16.e5450_e5984_s3126_r10201_r10210_p3387
