
# NAME 		: alt_singletop
# DATA 		: 0
# AF2 		: 0
# PRIORITY 	: 0

#410011	PowhegPythiaEvtGen_P2012_singletop_tchan_lept_top
#410012	PowhegPythiaEvtGen_P2012_singletop_tchan_lept_antitop
mc16_13TeV.410015.PowhegPythiaEvtGen_P2012_Wt_dilepton_top.deriv.DAOD_SUSY16.e3753_e5984_s3126_r10201_r10210_p3387
mc16_13TeV.410016.PowhegPythiaEvtGen_P2012_Wt_dilepton_antitop.deriv.DAOD_SUSY16.e3753_e5984_s3126_r10201_r10210_p3387
mc16_13TeV.410025.PowhegPythiaEvtGen_P2012_SingleTopSchan_noAllHad_top.deriv.DAOD_SUSY16.e3998_s3126_r10201_r10210_p3387
#410026	PowhegPythiaEvtGen_P2012_SingleTopSchan_noAllHad_antitop
