
# NAME 		 : VBFWBN2C1m_125_124_MET75 
# DATA 		 : 0 
# AF2 		 : 1 
# PRIORITY 	 : 0 

mc16_13TeV:mc16_13TeV.505879.MGPy8EG_A14N23LO_VBFWBN2C1m_125_124_MET75_MS.deriv.DAOD_EXOT5.e8307_a875_r9364_p4149