
# NAME     : MGPy8EG_A14N23LO_C1pN2_WZ_%5_%6_3L_3L3_MadSpin
# DATA     : 0
# AF2      : 1
# PRIORITY : 0

mc16_13TeV:mc16_13TeV.394079.MGPy8EG_A14N23LO_C1pN2_WZ_110p0_100p0_3L_3L3_MadSpin.deriv.DAOD_SUSY16.e6053_e5984_a875_r9364_r9315_p3371
mc16_13TeV:mc16_13TeV.394081.MGPy8EG_A14N23LO_C1pN2_WZ_110p0_95p0_3L_3L3_MadSpin.deriv.DAOD_SUSY16.e6053_e5984_a875_r9364_r9315_p3371
mc16_13TeV:mc16_13TeV.394083.MGPy8EG_A14N23LO_C1pN2_WZ_110p0_85p0_3L_3L3_MadSpin.deriv.DAOD_SUSY16.e6053_e5984_a875_r9364_r9315_p3371
mc16_13TeV:mc16_13TeV.394085.MGPy8EG_A14N23LO_C1pN2_WZ_110p0_70p0_3L_3L3_MadSpin.deriv.DAOD_SUSY16.e6053_e5984_a875_r9364_r9315_p3371
mc16_13TeV:mc16_13TeV.394087.MGPy8EG_A14N23LO_C1pN2_WZ_125p0_115p0_3L_3L3_MadSpin.deriv.DAOD_SUSY16.e6053_e5984_a875_r9364_r9315_p3371
mc16_13TeV:mc16_13TeV.394089.MGPy8EG_A14N23LO_C1pN2_WZ_125p0_110p0_3L_3L3_MadSpin.deriv.DAOD_SUSY16.e6053_e5984_a875_r9364_r9315_p3371
mc16_13TeV:mc16_13TeV.394091.MGPy8EG_A14N23LO_C1pN2_WZ_125p0_100p0_3L_3L3_MadSpin.deriv.DAOD_SUSY16.e6053_e5984_a875_r9364_r9315_p3371
mc16_13TeV:mc16_13TeV.394093.MGPy8EG_A14N23LO_C1pN2_WZ_125p0_85p0_3L_3L3_MadSpin.deriv.DAOD_SUSY16.e6053_e5984_a875_r9364_r9315_p3371
mc16_13TeV:mc16_13TeV.394095.MGPy8EG_A14N23LO_C1pN2_WZ_140p0_130p0_3L_3L3_MadSpin.deriv.DAOD_SUSY16.e6053_e5984_a875_r9364_r9315_p3371
mc16_13TeV:mc16_13TeV.394097.MGPy8EG_A14N23LO_C1pN2_WZ_140p0_125p0_3L_3L3_MadSpin.deriv.DAOD_SUSY16.e6053_e5984_a875_r9364_r9315_p3371
mc16_13TeV:mc16_13TeV.394099.MGPy8EG_A14N23LO_C1pN2_WZ_140p0_115p0_3L_3L3_MadSpin.deriv.DAOD_SUSY16.e6053_e5984_a875_r9364_r9315_p3371
mc16_13TeV:mc16_13TeV.394101.MGPy8EG_A14N23LO_C1pN2_WZ_140p0_100p0_3L_3L3_MadSpin.deriv.DAOD_SUSY16.e6053_e5984_a875_r9364_r9315_p3371
mc16_13TeV:mc16_13TeV.394103.MGPy8EG_A14N23LO_C1pN2_WZ_100p0_90p0_3L_3L3_MadSpin.deriv.DAOD_SUSY16.e6053_e5984_a875_r9364_r9315_p3371
mc16_13TeV:mc16_13TeV.394105.MGPy8EG_A14N23LO_C1pN2_WZ_100p0_80p0_3L_3L3_MadSpin.deriv.DAOD_SUSY16.e6053_e5984_a875_r9364_r9315_p3371
mc16_13TeV:mc16_13TeV.394107.MGPy8EG_A14N23LO_C1pN2_WZ_100p0_60p0_3L_3L3_MadSpin.deriv.DAOD_SUSY16.e6053_e5984_a875_r9364_r9315_p3371
mc16_13TeV:mc16_13TeV.394109.MGPy8EG_A14N23LO_C1pN2_WZ_150p0_140p0_3L_3L3_MadSpin.deriv.DAOD_SUSY16.e6053_e5984_a875_r9364_r9315_p3371
mc16_13TeV:mc16_13TeV.394111.MGPy8EG_A14N23LO_C1pN2_WZ_150p0_130p0_3L_3L3_MadSpin.deriv.DAOD_SUSY16.e6053_e5984_a875_r9364_r9315_p3371
mc16_13TeV:mc16_13TeV.394113.MGPy8EG_A14N23LO_C1pN2_WZ_150p0_110p0_3L_3L3_MadSpin.deriv.DAOD_SUSY16.e6053_e5984_a875_r9364_r9315_p3371
mc16_13TeV:mc16_13TeV.394115.MGPy8EG_A14N23LO_C1pN2_WZ_200p0_160p0_3L_3L3_MadSpin.deriv.DAOD_SUSY16.e6053_e5984_a875_r9364_r9315_p3371
