
# NAME     : VBFwinobino_80_77_2L2MET75
# DATA     : 0
# AF2      : 1
# PRIORITY : 0

mc16_13TeV:mc16_13TeV.398096.MGPy8EG_A14N23LO_SM_N2C1pWBVBFQED_80_77_2L2MET75_MadSpin.deriv.DAOD_SUSY16.e7550_e5984_a875_r10201_r10210_p3652
mc16_13TeV:mc16_13TeV.398126.MGPy8EG_A14N23LO_SM_N2C1mWBVBFQED_80_77_2L2MET75_MadSpin.deriv.DAOD_SUSY16.e7550_e5984_a875_r10201_r10210_p3652
mc16_13TeV:mc16_13TeV.398156.MGPy8EG_A14N23LO_SM_C1C1WBVBFQED_80_77_2L2MET75_MadSpin.deriv.DAOD_SUSY16.e7550_e5984_a875_r10201_r10210_p3652
