# NAME     : dataD
# DATA     : 1
# AF2      : 0
# PRIORITY : 0

data16_13TeV:data16_13TeV.periodK.physics_Main.PhysCont.DAOD_SUSY16.grp16_v01_p3653
data16_13TeV:data16_13TeV.periodL.physics_Main.PhysCont.DAOD_SUSY16.grp16_v02_p3653