
# NAME 		: MGPy8EG_A14N23LO_SM_N2C1mWBVBFQED_%5_%6_2L2MET75_MadSpin
# DATA 		: 0
# AF2 		: 1
# PRIORITY 	: 0

mc16_13TeV.396561.MGPy8EG_A14N23LO_SM_N2C1mWBVBFQED_113_110_2L2MET75_MadSpin.deriv.DAOD_SUSY16.e7034_a875_r9364_p3652
mc16_13TeV.396562.MGPy8EG_A14N23LO_SM_N2C1mWBVBFQED_120_110_2L2MET75_MadSpin.deriv.DAOD_SUSY16.e7034_a875_r9364_p3652
mc16_13TeV.396563.MGPy8EG_A14N23LO_SM_N2C1mWBVBFQED_140_110_2L2MET75_MadSpin.deriv.DAOD_SUSY16.e7034_a875_r9364_p3652
mc16_13TeV.396564.MGPy8EG_A14N23LO_SM_N2C1mWBVBFQED_150_110_2L2MET75_MadSpin.deriv.DAOD_SUSY16.e7034_a875_r9364_p3652
mc16_13TeV.396565.MGPy8EG_A14N23LO_SM_N2C1mWBVBFQED_170_140_2L2MET75_MadSpin.deriv.DAOD_SUSY16.e7034_a875_r9364_p3652
mc16_13TeV.396566.MGPy8EG_A14N23LO_SM_N2C1mWBVBFQED_180_140_2L2MET75_MadSpin.deriv.DAOD_SUSY16.e7034_a875_r9364_p3652
