
# NAME 		 : Strong_Zll_jets_Sh221_pTV 
# DATA 		 : 0 
# AF2 		 : 0 
# PRIORITY 	 : 0 

mc16_13TeV.364216.Sherpa_221_NNPDF30NNLO_Zmumu_PTV500_1000.deriv.DAOD_EXOT5.e5626_s3126_r10201_p4060
mc16_13TeV.364217.Sherpa_221_NNPDF30NNLO_Zmumu_PTV1000_E_CMS.deriv.DAOD_EXOT5.e5626_s3126_r10201_p4060
mc16_13TeV.364218.Sherpa_221_NNPDF30NNLO_Zee_PTV500_1000.deriv.DAOD_EXOT5.e5626_s3126_r10201_p4060
mc16_13TeV.364219.Sherpa_221_NNPDF30NNLO_Zee_PTV1000_E_CMS.deriv.DAOD_EXOT5.e5626_s3126_r10201_p4060
mc16_13TeV.364220.Sherpa_221_NNPDF30NNLO_Ztautau_PTV500_1000.deriv.DAOD_EXOT5.e5626_s3126_r10201_p4060
mc16_13TeV.364221.Sherpa_221_NNPDF30NNLO_Ztautau_PTV1000_E_CMS.deriv.DAOD_EXOT5.e5626_s3126_r10201_p4060