
# NAME 		 : EW_Wjets_Sh2211 
# DATA 		 : 0 
# AF2 		 : 0 
# PRIORITY 	 : 0 

mc16_13TeV:mc16_13TeV.700362.Sh_2211_Wenu2jets_Min_N_TChannel.deriv.DAOD_EXOT5.e8357_s3126_r9364_p4060
mc16_13TeV:mc16_13TeV.700363.Sh_2211_Wmunu2jets_Min_N_TChannel.deriv.DAOD_EXOT5.e8357_s3126_r9364_p4060
mc16_13TeV:mc16_13TeV.700364.Sh_2211_Wtaunu2jets_Min_N_TChannel.deriv.DAOD_EXOT5.e8357_s3126_r9364_p4060