
# NAME 		 : Strong_Znunu_jets_Sh221_pTV_Mjj 
# DATA 		 : 0 
# AF2 		 : 0 
# PRIORITY 	 : 0 

mc16_13TeV.366010.Sh_221_NN30NNLO_Znunu_PTV70_100_BFilter.deriv.DAOD_EXOT5.e6695_s3126_r9364_p4060
mc16_13TeV.366011.Sh_221_NN30NNLO_Znunu_PTV100_140_MJJ0_500_BFilter.deriv.DAOD_EXOT5.e6695_s3126_r9364_p4060
mc16_13TeV.366012.Sh_221_NN30NNLO_Znunu_PTV100_140_MJJ500_1000_BFilter.deriv.DAOD_EXOT5.e6695_s3126_r9364_p4060
mc16_13TeV.366013.Sh_221_NN30NNLO_Znunu_PTV100_140_MJJ1000_E_CMS_BFilter.deriv.DAOD_EXOT5.e6695_s3126_r9364_p4060
mc16_13TeV.366014.Sh_221_NN30NNLO_Znunu_PTV140_280_MJJ0_500_BFilter.deriv.DAOD_EXOT5.e6695_s3126_r9364_p4060
mc16_13TeV.366015.Sh_221_NN30NNLO_Znunu_PTV140_280_MJJ500_1000_BFilter.deriv.DAOD_EXOT5.e6695_s3126_r9364_p4060
mc16_13TeV.366016.Sh_221_NN30NNLO_Znunu_PTV140_280_MJJ1000_E_CMS_BFilter.deriv.DAOD_EXOT5.e6695_s3126_r9364_p4060
mc16_13TeV.366017.Sh_221_NN30NNLO_Znunu_PTV280_500_BFilter.deriv.DAOD_EXOT5.e6695_s3126_r9364_p4060
mc16_13TeV.366019.Sh_221_NN30NNLO_Znunu_PTV70_100_CFilterBVeto.deriv.DAOD_EXOT5.e7033_s3126_r9364_p4060
mc16_13TeV.366020.Sh_221_NN30NNLO_Znunu_PTV100_140_MJJ0_500_CFilterBVeto.deriv.DAOD_EXOT5.e7033_s3126_r9364_p4060
mc16_13TeV.366021.Sh_221_NN30NNLO_Znunu_PTV100_140_MJJ500_1000_CFilterBVeto.deriv.DAOD_EXOT5.e7033_s3126_r9364_p4060
mc16_13TeV.366022.Sh_221_NN30NNLO_Znunu_PTV100_140_MJJ1000_E_CMS_CFilterBVeto.deriv.DAOD_EXOT5.e7033_s3126_r9364_p4060
mc16_13TeV.366023.Sh_221_NN30NNLO_Znunu_PTV140_280_MJJ0_500_CFilterBVeto.deriv.DAOD_EXOT5.e7033_s3126_r9364_p4060
mc16_13TeV.366024.Sh_221_NN30NNLO_Znunu_PTV140_280_MJJ500_1000_CFilterBVeto.deriv.DAOD_EXOT5.e7033_s3126_r9364_p4060
mc16_13TeV.366025.Sh_221_NN30NNLO_Znunu_PTV140_280_MJJ1000_E_CMS_CFilterBVeto.deriv.DAOD_EXOT5.e7033_s3126_r9364_p4060
mc16_13TeV.366026.Sh_221_NN30NNLO_Znunu_PTV280_500_CFilterBVeto.deriv.DAOD_EXOT5.e7033_s3126_r9364_p4060
mc16_13TeV.366028.Sh_221_NN30NNLO_Znunu_PTV70_100_CVetoBVeto.deriv.DAOD_EXOT5.e7033_s3126_r9364_p4060
mc16_13TeV.366029.Sh_221_NN30NNLO_Znunu_PTV100_140_MJJ0_500_CVetoBVeto.deriv.DAOD_EXOT5.e7033_s3126_r9364_p4060
mc16_13TeV.366030.Sh_221_NN30NNLO_Znunu_PTV100_140_MJJ500_1000_CVetoBVeto.deriv.DAOD_EXOT5.e7033_s3126_r9364_p4060
mc16_13TeV.366031.Sh_221_NN30NNLO_Znunu_PTV100_140_MJJ1000_E_CMS_CVetoBVeto.deriv.DAOD_EXOT5.e7033_s3126_r9364_p4060
mc16_13TeV.366032.Sh_221_NN30NNLO_Znunu_PTV140_280_MJJ0_500_CVetoBVeto.deriv.DAOD_EXOT5.e7033_s3126_r9364_p4060
mc16_13TeV.366033.Sh_221_NN30NNLO_Znunu_PTV140_280_MJJ500_1000_CVetoBVeto.deriv.DAOD_EXOT5.e7033_s3126_r9364_p4060
mc16_13TeV.366034.Sh_221_NN30NNLO_Znunu_PTV140_280_MJJ1000_E_CMS_CVetoBVeto.deriv.DAOD_EXOT5.e7033_s3126_r9364_p4060
mc16_13TeV.366035.Sh_221_NN30NNLO_Znunu_PTV280_500_CVetoBVeto.deriv.DAOD_EXOT5.e7033_s3126_r9364_p4060