
# NAME 		: MGPy8EG_A14N23LO_SM_N2N1_%5_%6_2L2MET75_MadSpin
# DATA 		: 0
# AF2 		: 1
# PRIORITY 	: 0

mc16_13TeV.395108.MGPy8EG_A14N23LO_SM_N2N1_100_60_2L2MET75_MadSpin.deriv.DAOD_SUSY16.e6587_a875_r10201_p3654
mc16_13TeV.396908.MGPy8EG_A14N23LO_SM_N2N1_101p5_100_2L2MET75_MadSpin.deriv.DAOD_SUSY16.e7025_a875_r10201_p3654
mc16_13TeV.395119.MGPy8EG_A14N23LO_SM_N2N1_102_100_2L2MET75_MadSpin.deriv.DAOD_SUSY16.e6588_a875_r10201_p3654
mc16_13TeV.395120.MGPy8EG_A14N23LO_SM_N2N1_103_100_2L2MET75_MadSpin.deriv.DAOD_SUSY16.e6588_a875_r10201_p3654
mc16_13TeV.395121.MGPy8EG_A14N23LO_SM_N2N1_105_100_2L2MET75_MadSpin.deriv.DAOD_SUSY16.e6588_a875_r10201_p3654
mc16_13TeV.395122.MGPy8EG_A14N23LO_SM_N2N1_110_100_2L2MET75_MadSpin.deriv.DAOD_SUSY16.e6708_a875_r10201_p3654
mc16_13TeV.395116.MGPy8EG_A14N23LO_SM_N2N1_110_80_2L2MET75_MadSpin.deriv.DAOD_SUSY16.e6588_a875_r10201_p3654
mc16_13TeV.395123.MGPy8EG_A14N23LO_SM_N2N1_115_100_2L2MET75_MadSpin.deriv.DAOD_SUSY16.e6588_a875_r10201_p3654
mc16_13TeV.395124.MGPy8EG_A14N23LO_SM_N2N1_120_100_2L2MET75_MadSpin.deriv.DAOD_SUSY16.e6588_a875_r10201_p3654
mc16_13TeV.395109.MGPy8EG_A14N23LO_SM_N2N1_120_60_2L2MET75_MadSpin.deriv.DAOD_SUSY16.e6980_a875_r10201_p3654
mc16_13TeV.395117.MGPy8EG_A14N23LO_SM_N2N1_120_80_2L2MET75_MadSpin.deriv.DAOD_SUSY16.e6708_a875_r10201_p3654
mc16_13TeV.396916.MGPy8EG_A14N23LO_SM_N2N1_126p5_125_2L2MET75_MadSpin.deriv.DAOD_SUSY16.e7025_a875_r10201_p3654
mc16_13TeV.395128.MGPy8EG_A14N23LO_SM_N2N1_127_125_2L2MET75_MadSpin.deriv.DAOD_SUSY16.e6708_a875_r10201_p3654
mc16_13TeV.395138.MGPy8EG_A14N23LO_SM_N2N1_153_150_2L2MET75_MadSpin.deriv.DAOD_SUSY16.e6588_a875_r10201_p3654
mc16_13TeV.395139.MGPy8EG_A14N23LO_SM_N2N1_155_150_2L2MET75_MadSpin.deriv.DAOD_SUSY16.e6588_a875_r10201_p3654
mc16_13TeV.395140.MGPy8EG_A14N23LO_SM_N2N1_160_150_2L2MET75_MadSpin.deriv.DAOD_SUSY16.e6588_a875_r10201_p3654
mc16_13TeV.395141.MGPy8EG_A14N23LO_SM_N2N1_165_150_2L2MET75_MadSpin.deriv.DAOD_SUSY16.e6588_a875_r10201_p3654
mc16_13TeV.395142.MGPy8EG_A14N23LO_SM_N2N1_170_150_2L2MET75_MadSpin.deriv.DAOD_SUSY16.e6588_a875_r10201_p3654
mc16_13TeV.395143.MGPy8EG_A14N23LO_SM_N2N1_180_150_2L2MET75_MadSpin.deriv.DAOD_SUSY16.e6588_a875_r10201_p3654
mc16_13TeV.395144.MGPy8EG_A14N23LO_SM_N2N1_190_150_2L2MET75_MadSpin.deriv.DAOD_SUSY16.e6588_a875_r10201_p3654
mc16_13TeV.395148.MGPy8EG_A14N23LO_SM_N2N1_205_200_2L2MET75_MadSpin.deriv.DAOD_SUSY16.e6708_a875_r10201_p3654
#395145
mc16_13TeV.395149.MGPy8EG_A14N23LO_SM_N2N1_210_200_2L2MET75_MadSpin.deriv.DAOD_SUSY16.e6588_a875_r10201_p3654
mc16_13TeV.395150.MGPy8EG_A14N23LO_SM_N2N1_215_200_2L2MET75_MadSpin.deriv.DAOD_SUSY16.e6588_a875_r10201_p3654
mc16_13TeV.395151.MGPy8EG_A14N23LO_SM_N2N1_220_200_2L2MET75_MadSpin.deriv.DAOD_SUSY16.e6708_a875_r10201_p3654
mc16_13TeV.395158.MGPy8EG_A14N23LO_SM_N2N1_260_250_2L2MET75_MadSpin.deriv.DAOD_SUSY16.e6588_a875_r10201_p3654
mc16_13TeV.395159.MGPy8EG_A14N23LO_SM_N2N1_265_250_2L2MET75_MadSpin.deriv.DAOD_SUSY16.e6588_a875_r10201_p3654
mc16_13TeV.396912.MGPy8EG_A14N23LO_SM_N2N1_81p5_80_2L2MET75_MadSpin.deriv.DAOD_SUSY16.e7025_a875_r10201_p3654
mc16_13TeV.395110.MGPy8EG_A14N23LO_SM_N2N1_82_80_2L2MET75_MadSpin.deriv.DAOD_SUSY16.e6708_a875_r10201_p3654
mc16_13TeV.395111.MGPy8EG_A14N23LO_SM_N2N1_83_80_2L2MET75_MadSpin.deriv.DAOD_SUSY16.e6587_a875_r10201_p3654
mc16_13TeV.395112.MGPy8EG_A14N23LO_SM_N2N1_85_80_2L2MET75_MadSpin.deriv.DAOD_SUSY16.e6587_a875_r10201_p3654
mc16_13TeV.395113.MGPy8EG_A14N23LO_SM_N2N1_90_80_2L2MET75_MadSpin.deriv.DAOD_SUSY16.e6588_a875_r10201_p3654
mc16_13TeV.395114.MGPy8EG_A14N23LO_SM_N2N1_95_80_2L2MET75_MadSpin.deriv.DAOD_SUSY16.e6588_a875_r10201_p3654

