
# NAME     : dataH
# DATA     : 1
# AF2      : 0
# PRIORITY : 0


data18_13TeV:data18_13TeV.periodB.physics_Main.PhysCont.DAOD_SUSY16.grp18_v02_p3544 
data18_13TeV:data18_13TeV.periodC.physics_Main.PhysCont.DAOD_SUSY16.grp18_v02_p3544 
data18_13TeV:data18_13TeV.periodD.physics_Main.PhysCont.DAOD_SUSY16.grp18_v02_p3544 
